{
	"info": {
		"_postman_id": "c27a7d2a-cc31-4db9-b99c-2c6d632d566d",
		"name": "Hero",
		"schema": "https://schema.getpostman.com/json/collection/v2.1.0/collection.json"
	},
	"item": [
		{
			"name": "getAll",
			"request": {
				"method": "GET",
				"header": [],
				"url": {
					"raw": "http://localhost:8080/api/v1/heros",
					"protocol": "http",
					"host": [
						"localhost"
					],
					"port": "8080",
					"path": [
						"api",
						"v1",
						"heros"
					]
				}
			},
			"response": []
		},
		{
			"name": "getById",
			"request": {
				"method": "GET",
				"header": [],
				"url": {
					"raw": "http://localhost:8080/api/v1/heros/2",
					"protocol": "http",
					"host": [
						"localhost"
					],
					"port": "8080",
					"path": [
						"api",
						"v1",
						"heros",
						"2"
					]
				}
			},
			"response": []
		},
		{
			"name": "getByNameLike",
			"request": {
				"method": "GET",
				"header": [],
				"url": {
					"raw": "http://localhost:8080/api/v1/heros/name/man",
					"protocol": "http",
					"host": [
						"localhost"
					],
					"port": "8080",
					"path": [
						"api",
						"v1",
						"heros",
						"name",
						"man"
					]
				}
			},
			"response": []
		},
		{
			"name": "insert",
			"request": {
				"auth": {
					"type": "bearer",
					"bearer": [
						{
							"key": "token",
							"value": "eyJhbGciOiJIUzI1NiIsInR5cCI6IkpXVCJ9.eyJleHAiOjE2NDQ2MjY1MTAsInVzZXJfbmFtZSI6ImFybWFuZG8iLCJhdXRob3JpdGllcyI6WyJST0xFX1VTRVIiXSwianRpIjoiM2I2MjBkMDQtMTY3YS00Yjg0LWIwMTgtZDI0MDQ5NDJiNjBkIiwiY2xpZW50X2lkIjoiY2xpZW50Iiwic2NvcGUiOlsicmVhZCIsIndyaXRlIl19.MBmOCgYrR25A4uvKQerPrSvbA4YLl2381WaiYZhJBUk",
							"type": "string"
						}
					]
				},
				"method": "POST",
				"header": [],
				"body": {
					"mode": "raw",
					"raw": "{\n    \"name\":\"Armando\"\n}",
					"options": {
						"raw": {
							"language": "json"
						}
					}
				},
				"url": {
					"raw": "http://localhost:8080/api/v1/heros",
					"protocol": "http",
					"host": [
						"localhost"
					],
					"port": "8080",
					"path": [
						"api",
						"v1",
						"heros"
					]
				}
			},
			"response": []
		},
		{
			"name": "Update",
			"request": {
				"auth": {
					"type": "bearer",
					"bearer": [
						{
							"key": "token",
							"value": "eyJhbGciOiJIUzI1NiIsInR5cCI6IkpXVCJ9.eyJleHAiOjE2NDQ2MjY1MTAsInVzZXJfbmFtZSI6ImFybWFuZG8iLCJhdXRob3JpdGllcyI6WyJST0xFX1VTRVIiXSwianRpIjoiM2I2MjBkMDQtMTY3YS00Yjg0LWIwMTgtZDI0MDQ5NDJiNjBkIiwiY2xpZW50X2lkIjoiY2xpZW50Iiwic2NvcGUiOlsicmVhZCIsIndyaXRlIl19.MBmOCgYrR25A4uvKQerPrSvbA4YLl2381WaiYZhJBUk",
							"type": "string"
						}
					]
				},
				"method": "PUT",
				"header": [],
				"body": {
					"mode": "raw",
					"raw": "{\n    \"name\": \"Manolo\"\n}",
					"options": {
						"raw": {
							"language": "json"
						}
					}
				},
				"url": {
					"raw": "http://localhost:8080/api/v1/heros/2",
					"protocol": "http",
					"host": [
						"localhost"
					],
					"port": "8080",
					"path": [
						"api",
						"v1",
						"heros",
						"2"
					]
				}
			},
			"response": []
		},
		{
			"name": "Delete",
			"request": {
				"auth": {
					"type": "bearer",
					"bearer": [
						{
							"key": "token",
							"value": "eyJhbGciOiJIUzI1NiIsInR5cCI6IkpXVCJ9.eyJleHAiOjE2NDQ2MjY1MTAsInVzZXJfbmFtZSI6ImFybWFuZG8iLCJhdXRob3JpdGllcyI6WyJST0xFX1VTRVIiXSwianRpIjoiM2I2MjBkMDQtMTY3YS00Yjg0LWIwMTgtZDI0MDQ5NDJiNjBkIiwiY2xpZW50X2lkIjoiY2xpZW50Iiwic2NvcGUiOlsicmVhZCIsIndyaXRlIl19.MBmOCgYrR25A4uvKQerPrSvbA4YLl2381WaiYZhJBUk",
							"type": "string"
						}
					]
				},
				"method": "DELETE",
				"header": [],
				"url": {
					"raw": "http://localhost:8080/api/v1/heros/2",
					"protocol": "http",
					"host": [
						"localhost"
					],
					"port": "8080",
					"path": [
						"api",
						"v1",
						"heros",
						"2"
					]
				}
			},
			"response": []
		},
		{
			"name": "login",
			"request": {
				"auth": {
					"type": "basic",
					"basic": [
						{
							"key": "username",
							"value": "client",
							"type": "string"
						},
						{
							"key": "password",
							"value": "123456",
							"type": "string"
						}
					]
				},
				"method": "POST",
				"header": [],
				"body": {
					"mode": "urlencoded",
					"urlencoded": [
						{
							"key": "username",
							"value": "armando",
							"type": "text"
						},
						{
							"key": "password",
							"value": "123456",
							"type": "text"
						},
						{
							"key": "grant_type",
							"value": "password",
							"type": "text"
						}
					],
					"options": {
						"raw": {
							"language": "json"
						}
					}
				},
				"url": {
					"raw": "http://localhost:8080/oauth/token",
					"protocol": "http",
					"host": [
						"localhost"
					],
					"port": "8080",
					"path": [
						"oauth",
						"token"
					]
				}
			},
			"response": []
		}
	]
}